Summer2025-HW1-SOLUTION-R
…
In[16]:

# Define the window size 
window_size <- 3

# Calculate rolling mean
monthly_avg_sales_per_category <- monthly_avg_sales_per_category %>%
  group_by(Product_Category) %>%
  mutate(Rolling_Mean = rollapply(Average_Sales, width = window_size, 
                                   FUN = mean, align = "center", fill = NA)) %>%
  ungroup()

print(monthly_avg_sales_per_category)

# A tibble: 72 x 4
   Month      Product_Category Average_Sales Rolling_Mean
   <date>     <fct>                    <dbl>        <dbl>
 1 2024-01-01 Books                     997.          NA 
 2 2024-01-01 Clothing                  896.          NA 
 3 2024-01-01 Electronics               939.          NA 
 4 2024-01-01 Furniture                 814.          NA 
 5 2024-01-01 Home Appliances           930.          NA 
 6 2024-01-01 Toys                      649.          NA 
 7 2024-02-01 Books                    1002.        1022.
 8 2024-02-01 Clothing                 1065.         870.
 9 2024-02-01 Electronics              1082.        1102.
10 2024-02-01 Furniture                 837.         883.
# ... with 62 more rows
…
